12:16:43 DEBUG [CodeSanook.MicroBlog.Business.Services.ArticleService.GetArticleList(D:\projects\CodeSanook\Main\CodeSanook.MicroBlog.Business\Services\ArticleService.cs:29)] - aricleList count: 5 
12:38:30 DEBUG [CodeSanook.MicroBlog.Business.Services.ArticleService.GetArticleList(D:\projects\CodeSanook\Main\CodeSanook.MicroBlog.Business\Services\ArticleService.cs:29)] - aricleList count: 5 
12:40:05 DEBUG [CodeSanook.MicroBlog.Business.Services.ArticleService.GetArticleList(D:\projects\CodeSanook\Main\CodeSanook.MicroBlog.Business\Services\ArticleService.cs:29)] - aricleList count: 5 
12:40:27 DEBUG [CodeSanook.MicroBlog.Business.Services.ArticleService.GetArticleList(D:\projects\CodeSanook\Main\CodeSanook.MicroBlog.Business\Services\ArticleService.cs:29)] - aricleList count: 5 
17:09:48 DEBUG [CodeSanook.MicroBlog.Business.Services.ArticleService.GetArticleList(D:\projects\CodeSanook\Main\CodeSanook.MicroBlog.Business\Services\ArticleService.cs:29)] - aricleList count: 5 
17:16:49 ERROR [CodeSanook.MicroBlog.Business.Services.ArticleService.GetArticleDetail(D:\projects\CodeSanook\Main\CodeSanook.MicroBlog.Business\Services\ArticleService.cs:76)] - System.Data.SqlTypes.SqlTypeException: SqlDateTime overflow. Must be between 1/1/1753 12:00:00 AM and 12/31/9999 11:59:59 PM.
   at System.Data.SqlClient.TdsParser.TdsExecuteRPC(_SqlRPC[] rpcArray, Int32 timeout, Boolean inSchema, SqlNotificationRequest notificationRequest, TdsParserStateObject stateObj, Boolean isCommandProc, Boolean sync, TaskCompletionSource`1 completion, Int32 startRpc, Int32 startParam)
   at System.Data.SqlClient.SqlCommand.RunExecuteReaderTds(CommandBehavior cmdBehavior, RunBehavior runBehavior, Boolean returnStream, Boolean async, Int32 timeout, Task& task, Boolean asyncWrite)
   at System.Data.SqlClient.SqlCommand.RunExecuteReader(CommandBehavior cmdBehavior, RunBehavior runBehavior, Boolean returnStream, String method, TaskCompletionSource`1 completion, Int32 timeout, Task& task, Boolean asyncWrite)
   at System.Data.SqlClient.SqlCommand.InternalExecuteNonQuery(TaskCompletionSource`1 completion, String methodName, Boolean sendToPipe, Int32 timeout, Boolean asyncWrite)
   at System.Data.SqlClient.SqlCommand.ExecuteNonQuery()
   at System.Data.SqlClient.SqlCommand.ExecuteBatchRPCCommand()
   at System.Data.SqlClient.SqlCommandSet.ExecuteNonQuery()
   at NHibernate.AdoNet.SqlClientSqlCommandSet.ExecuteNonQuery()
   at NHibernate.AdoNet.SqlClientBatchingBatcher.DoExecuteBatch(IDbCommand ps)
   at NHibernate.AdoNet.AbstractBatcher.ExecuteBatchWithTiming(IDbCommand ps)
   at NHibernate.AdoNet.AbstractBatcher.ExecuteBatch()
   at NHibernate.Engine.ActionQueue.ExecuteActions(IList list)
   at NHibernate.Engine.ActionQueue.ExecuteActions()
   at NHibernate.Event.Default.AbstractFlushingEventListener.PerformExecutions(IEventSource session)
   at NHibernate.Event.Default.DefaultFlushEventListener.OnFlush(FlushEvent event)
   at NHibernate.Impl.SessionImpl.Flush()
   at CodeSanook.MicroBlog.Repositories.NH.NHUnitOfWork.Commit(Boolean isWithTransactionRollback) in D:\projects\CodeSanook\Main\Repositories\CodeSanook.MicroBlog.Repositories.NH\NHUnitOfWork.cs:line 39
   at CodeSanook.MicroBlog.Repositories.NH.NHUnitOfWork.Commit() in D:\projects\CodeSanook\Main\Repositories\CodeSanook.MicroBlog.Repositories.NH\NHUnitOfWork.cs:line 59
   at CodeSanook.MicroBlog.Business.Services.ArticleService.GetArticleDetail(Int32 articleId) in D:\projects\CodeSanook\Main\CodeSanook.MicroBlog.Business\Services\ArticleService.cs:line 71 
17:16:53 ERROR [CodeSanook.MicroBlog.Business.Services.ArticleService.GetArticleDetail(D:\projects\CodeSanook\Main\CodeSanook.MicroBlog.Business\Services\ArticleService.cs:76)] - System.Data.SqlTypes.SqlTypeException: SqlDateTime overflow. Must be between 1/1/1753 12:00:00 AM and 12/31/9999 11:59:59 PM.
   at System.Data.SqlClient.TdsParser.TdsExecuteRPC(_SqlRPC[] rpcArray, Int32 timeout, Boolean inSchema, SqlNotificationRequest notificationRequest, TdsParserStateObject stateObj, Boolean isCommandProc, Boolean sync, TaskCompletionSource`1 completion, Int32 startRpc, Int32 startParam)
   at System.Data.SqlClient.SqlCommand.RunExecuteReaderTds(CommandBehavior cmdBehavior, RunBehavior runBehavior, Boolean returnStream, Boolean async, Int32 timeout, Task& task, Boolean asyncWrite)
   at System.Data.SqlClient.SqlCommand.RunExecuteReader(CommandBehavior cmdBehavior, RunBehavior runBehavior, Boolean returnStream, String method, TaskCompletionSource`1 completion, Int32 timeout, Task& task, Boolean asyncWrite)
   at System.Data.SqlClient.SqlCommand.InternalExecuteNonQuery(TaskCompletionSource`1 completion, String methodName, Boolean sendToPipe, Int32 timeout, Boolean asyncWrite)
   at System.Data.SqlClient.SqlCommand.ExecuteNonQuery()
   at System.Data.SqlClient.SqlCommand.ExecuteBatchRPCCommand()
   at System.Data.SqlClient.SqlCommandSet.ExecuteNonQuery()
   at NHibernate.AdoNet.SqlClientSqlCommandSet.ExecuteNonQuery()
   at NHibernate.AdoNet.SqlClientBatchingBatcher.DoExecuteBatch(IDbCommand ps)
   at NHibernate.AdoNet.AbstractBatcher.ExecuteBatchWithTiming(IDbCommand ps)
   at NHibernate.AdoNet.AbstractBatcher.ExecuteBatch()
   at NHibernate.Engine.ActionQueue.ExecuteActions(IList list)
   at NHibernate.Engine.ActionQueue.ExecuteActions()
   at NHibernate.Event.Default.AbstractFlushingEventListener.PerformExecutions(IEventSource session)
   at NHibernate.Event.Default.DefaultFlushEventListener.OnFlush(FlushEvent event)
   at NHibernate.Impl.SessionImpl.Flush()
   at CodeSanook.MicroBlog.Repositories.NH.NHUnitOfWork.Commit(Boolean isWithTransactionRollback) in D:\projects\CodeSanook\Main\Repositories\CodeSanook.MicroBlog.Repositories.NH\NHUnitOfWork.cs:line 39
   at CodeSanook.MicroBlog.Repositories.NH.NHUnitOfWork.Commit() in D:\projects\CodeSanook\Main\Repositories\CodeSanook.MicroBlog.Repositories.NH\NHUnitOfWork.cs:line 59
   at CodeSanook.MicroBlog.Business.Services.ArticleService.GetArticleDetail(Int32 articleId) in D:\projects\CodeSanook\Main\CodeSanook.MicroBlog.Business\Services\ArticleService.cs:line 71 
17:23:17 DEBUG [CodeSanook.MicroBlog.Business.Services.ArticleService.GetArticleList(D:\projects\CodeSanook\Main\CodeSanook.MicroBlog.Business\Services\ArticleService.cs:29)] - aricleList count: 5 
